monkeylearn, a R Package for Natural Language Processing Using Monkeylearn Existing Modules
…
How to find classifiers?

You can find classifiers and their IDs at https://app.monkeylearn.com/main/explore or you can use the monkeylearn_classifiers function, choosing to show all classifiers or only the private ones with private = TRUE. The first column of the resulting data.frame is the classifier_id to be used in monkeylearn_classify.

monkeylearn_classifiers(private = FALSE)
#> # A tibble: 45 x 19
#>    classifier_id name   description      train_state train_job_id language
#>    <chr>         <chr>  <chr>            <chr>       <lgl>        <chr>   
#>  1 cl_gBhyCMCs   Custo… Detects if huma… TRAINED     NA           en      
#>  2 cl_Aiu8dfYF   Custo… "Classifies cus… DIRTY       NA           en      
#>  3 cl_N3VzxNLN   Custo… Differentiates … TRAINED     NA           en      
#>  4 cl_csyzaevo   Role … "Classifies job… DIRTY       NA           en      
#>  5 cl_pX4g5EEF   Custo… Helps to detect… TRAINED     NA           en      
#>  6 cl_Jx8qzYJh   Senti… Detect sentimen… TRAINED     NA           en      
#>  7 cl_sGdE8hD9   NPS S… Classify NPS re… DIRTY       NA           en      
#>  8 cl_T7XMb74S   IAB T… Classifies text… TRAINED     NA           en      
#>  9 cl_nLW3yR6m   Telco… Classify custom… TRAINED     NA           en      
#> 10 cl_4LqLD7cN   Telco… Detect the topi… TRAINED     NA           en      
#> # ... with 35 more rows, and 13 more variables: ngram_range <chr>,
#> #   use_stemmer <lgl>, stop_words <chr>, max_features <int>,
#> #   strip_stopwords <lgl>, is_multilabel <lgl>, is_twitter_data <lgl>,
#> #   normalize_weights <lgl>, classifier <chr>, industry <chr>,
#> #   classifier_type <chr>, text_type <chr>, permissions <chr>
…
Since the entire original input is represented in the output, if you need to find all of the empty inputs you can easily filter the output to all of the rows containing empty strings.

monkey_classify(very_empty_input, unnest = FALSE)
#> Using classifier ID cl_oFKL5wft; to find other classifiers, run monkeylearn_classifiers() or visit https://app.monkeylearn.com/main/explore/
#> The following indices were empty strings and could not be sent to the API. (Displaying first 20): 1, 3, 6, 7, 8, 9, 10, 11, 12, 13, 14, 17, 18, 22, 23, 24, 25, 26, 27, 28... They will still be included in the output.
#> Processing batch 1 of 1 batches: texts 1 to 10
#> # A tibble: 36 x 2
#>    req                                                    res             
#>    <chr>                                                  <list>          
#>  1 ""                                                     <data.frame [1 …
#>  2 governess, who had fallen little short of a mother in… <data.frame [4 …
#>  3 ""                                                     <data.frame [1 …
#>  4 mistress of his house from a very early period. Her m… <data.frame [3 …
#>  5 and happy disposition, seemed to unite some of the be… <data.frame [3 …
#>  6 ""                                                     <data.frame [1 …
#>  7 ""                                                     <data.frame [1 …
#>  8 ""                                                     <data.frame [1 …
#>  9 ""                                                     <data.frame [1 …
#> 10 ""                                                     <data.frame [1 …
#> # ... with 26 more rows
…
You can easily choose an unnested output by setting the unnest flag to TRUE (which it is by default) to get one row per classification/extraction.

(output_unnested <- monkey_classify(input, verbose = FALSE, unnest = TRUE))
#> # A tibble: 36 x 4
#>    req                               category_id probability label        
#>    <chr>                                   <int>       <dbl> <chr>        
#>  1 Emma Woodhouse, handsome, clever…    18313280      0.0580 Music        
#>  2 Emma Woodhouse, handsome, clever…    18313356      0.0520 Pop          
#>  3 Emma Woodhouse, handsome, clever…    18313357      0.338  Pop Rock     
#>  4 Emma Woodhouse, handsome, clever…    18313358      0.209  Joni Mitchell
#>  5 and happy disposition, seemed to…    18313280      0.0880 Music        
#>  6 and happy disposition, seemed to…    18313701      0.0510 Special Inte…
#>  7 and happy disposition, seemed to…    18313702      0.816  See all Spec…
#>  8 existence; and had lived nearly …    18314767      0.0760 Books        
#>  9 existence; and had lived nearly …    18315016      0.0490 Religion     
#> 10 existence; and had lived nearly …    18315024      0.139  Inspirational
#> # ... with 26 more rows
…
